{
  "data": [
    {
      "ticker": "RDSB",
      "type": "Common",
      "lastDividend": 1.44,
      "fixedDividend": null,
      "parValue": 2,
      "currentPrice": 25.67
    },
    {
      "ticker": "AAPL",
      "type": "Common",
      "lastDividend": 1.12,
      "fixedDividend": null,
      "parValue": 1,
      "currentPrice": 210.33
    }
  ]
}
